{
  "name": "GetGoogleAPIDetails",
  "description": "Blank Process",
  "main": "Main.xaml",
  "dependencies": {
    "UiPath.Database.Activities": "1.2.6863.32528",
    "UiPath.Excel.Activities": "[2.5.3]",
    "UiPath.Mail.Activities": "[1.4.0]",
    "UiPath.System.Activities": "[19.4.0]",
    "UiPath.UIAutomation.Activities": "[19.4.1]",
    "UiPath.WebAPI.Activities": "1.4.3"
  },
  "schemaVersion": "3.2",
  "studioVersion": "19.4.2.0",
  "projectVersion": "1.0.0",
  "runtimeOptions": {
    "autoDispose": false,
    "isPausable": true,
    "excludedLoggedData": [
      "Private:*",
      "*password*"
    ]
  },
  "projectType": "Workflow",
  "libraryOptions": {
    "includeOriginalXaml": false,
    "privateWorkflows": []
  },
  "webServices": []
}